{
  "$schema": "https://developer.microsoft.com/json-schemas/rush/v5/rush-project.schema.json",
  "operationSettings": [
    {
      "operationName": "_phase:build",
      "outputFolderNames": ["dist", "lib", "lib-commonjs", "temp"]
    },
    {
      "operationName": "build",
      "outputFolderNames": ["dist", "lib", "lib-commonjs", "temp"]
    }
  ]
}
