{
  "name": "@kelp_digital/heft-esm-transform-plugin",
  "entries": [
    {
      "version": "0.2.0",
      "tag": "@kelp_digital/heft-esm-transform-plugin_v0.2.0",
      "date": "Wed, 25 Jan 2023 12:46:35 GMT",
      "comments": {
        "patch": [
          {
            "comment": "init the features"
          },
          {
            "comment": "rename the internal signature, add commonjs optional and nullable"
          },
          {
            "comment": "rename internal method"
          },
          {
            "comment": "write file is sync now"
          }
        ],
        "minor": [
          {
            "comment": "init"
          }
        ]
      }
    }
  ]
}
