{
  "name": "@kelp_digital/heft-library-rig",
  "entries": [
    {
      "version": "0.2.0",
      "tag": "@kelp_digital/heft-library-rig_v0.2.0",
      "date": "Wed, 25 Jan 2023 12:46:35 GMT",
      "comments": {
        "patch": [
          {
            "comment": "init"
          }
        ],
        "minor": [
          {
            "comment": "init"
          }
        ]
      }
    }
  ]
}
